{
  "build": {
    "beforeDevCommand": "pnpm dev",
    "beforeBuildCommand": "pnpm build",
    "devPath": "http://localhost:1420",
    "distDir": "../dist",
    "withGlobalTauri": false
  },
  "package": {
    "productName": "my-note",
    "version": "1.0.0"
  },
  "tauri": {
    "macOSPrivateApi": true,
    "allowlist": {
      "all": true,
      "window": {
        "all": false,
        "close": true,
        "hide": true,
        "show": true,
        "maximize": true,
        "minimize": true,
        "unmaximize": true,
        "unminimize": true,
        "startDragging": true
      },
      "shell": {
        "all": false,
        "open": true
      }
    },
    "bundle": {
      "active": true,
      "targets": "all",
      "identifier": "jingjo",
      "icon": [
        "icons/32x32.png",
        "icons/128x128.png",
        "icons/128x128@2x.png",
        "icons/icon.icns",
        "icons/icon.ico"
      ]
    },
    "security": {
      "csp": null
    },
    "windows": [
      {
        "title": "Hi!",
        "fullscreen": false,
        "decorations": true,
        "resizable": false,
        "transparent": false,
        "width": 426,
        "height": 564
      }
    ]
  }
}
